BattleTank/Binaries/Win64/BattleTank.exe	2019-04-21T23:49:01.321Z
Engine/Extras/Redist/en-us/UE4PrereqSetup_x64.exe	2018-12-23T18:20:32.001Z
Engine/Binaries/ThirdParty/Oculus/OVRPlugin/OVRPlugin/Win64/OVRPlugin.dll	2018-12-23T17:53:50.816Z
Engine/Binaries/ThirdParty/Windows/DirectX/x64/WinPixEventRuntime.dll	2018-12-23T17:55:57.190Z
Engine/Binaries/ThirdParty/NVIDIA/NVaftermath/Win64/GFSDK_Aftermath_Lib.x64.dll	2018-12-23T17:53:43.238Z
Engine/Binaries/ThirdParty/PhysX3/Win64/VS2015/PxFoundationPROFILE_x64.dll	2018-12-23T17:55:42.771Z
Engine/Binaries/ThirdParty/PhysX3/Win64/VS2015/PxPvdSDKPROFILE_x64.dll	2018-12-23T17:55:43.357Z
Engine/Binaries/ThirdParty/PhysX3/Win64/VS2015/PhysX3PROFILE_x64.dll	2018-12-23T17:55:38.478Z
Engine/Binaries/ThirdParty/PhysX3/Win64/VS2015/PhysX3CookingPROFILE_x64.dll	2018-12-23T17:55:38.400Z
Engine/Binaries/ThirdParty/PhysX3/Win64/VS2015/PhysX3CommonPROFILE_x64.dll	2018-12-23T17:55:34.460Z
Engine/Binaries/ThirdParty/PhysX3/Win64/VS2015/APEX_ClothingPROFILE_x64.dll	2018-12-23T17:55:06.372Z
Engine/Binaries/ThirdParty/PhysX3/Win64/VS2015/APEX_LegacyPROFILE_x64.dll	2018-12-23T17:55:17.960Z
Engine/Binaries/ThirdParty/PhysX3/Win64/VS2015/ApexFrameworkPROFILE_x64.dll	2018-12-23T17:55:22.852Z
Engine/Binaries/ThirdParty/PhysX3/Win64/VS2015/NvClothPROFILE_x64.dll	2018-12-23T17:55:29.626Z
Engine/Binaries/ThirdParty/OpenVR/OpenVRv1_0_16/Win64/openvr_api.dll	2018-12-23T17:53:50.843Z
Engine/Binaries/ThirdParty/Ogg/Win64/VS2015/libogg_64.dll	2018-12-23T17:53:50.819Z
Engine/Binaries/ThirdParty/Vorbis/Win64/VS2015/libvorbis_64.dll	2018-12-23T17:55:51.377Z
Engine/Binaries/ThirdParty/Vorbis/Win64/VS2015/libvorbisfile_64.dll	2018-12-23T17:55:51.378Z
BattleTank.exe	2019-04-21T23:50:24.391Z
